GPS_ELEVATION;PLOT_FORM;GPS_ELEVATION;PLOT_DATA;FORM
ORIENTATION_CODE;PLOT_FORM;ORIENTATION_CODE;PLOT_DATA;FORM
SLOPE;PLOT_FORM;SLOPE;PLOT_DATA;FORM
PREVIOUS_LAND_USE_CODE;PLOT_FORM;PREVIOUS_LAND_USE_CODE;PLOT_DATA;FORM
ORIGIN_CODE;PLOT_FORM;ORIGIN_CODE;PLOT_DATA;FORM
FOREST_MANAGEMENT_CODE;PLOT_FORM;FOREST_MANAGEMENT_CODE;PLOT_DATA;FORM
FOREST_TYPE_CODE;PLOT_FORM;FOREST_TYPE_CODE;PLOT_DATA;FORM
TREEMIX_CODE;PLOT_FORM;TREEMIX_CODE;PLOT_DATA;FORM
MEAN_AGE_CODE;PLOT_FORM;MEAN_AGE_CODE;PLOT_DATA;FORM
FENCING_CODE;PLOT_FORM;FENCING_CODE;PLOT_DATA;FORM
EFTC_CODE;PLOT_FORM;EFTC_CODE;PLOT_DATA;FORM
DW_REMOVAL_CODE;PLOT_FORM;DW_REMOVAL_CODE;PLOT_DATA;FORM
CANOPY_CLOSURE_CODE;PLOT_FORM;CANOPY_CLOSURE_CODE;PLOT_DATA;FORM
TREE_LAYERS_NUMBER_CODE;PLOT_FORM;TREE_LAYERS_NUMBER_CODE;PLOT_DATA;FORM
SAMPLE_PERCENTAGE;PLOT_FORM;SAMPLE_PERCENTAGE;PLOT_DATA;FORM
DBH;TREE_FORM;DBH;TREE_DATA;FORM
TREE_STATUS_CODE;TREE_FORM;TREE_STATUS_CODE;TREE_DATA;FORM
DISTANCE;TREE_FORM;DISTANCE;TREE_DATA;FORM
AZIMUTH;TREE_FORM;AZIMUTH;TREE_DATA;FORM
SPECIES_CODE;TREE_FORM;SPECIES_CODE;TREE_DATA;FORM
DECAY_CODE;TREE_FORM;DECAY_CODE;TREE_DATA;FORM
TREE_HEIGHT;TREE_FORM;TREE_HEIGHT;TREE_DATA;FORM
CANOPY_HEIGHT;TREE_FORM;CANOPY_HEIGHT;TREE_DATA;FORM
PLOT_CODE;BIODIVERSITY_PLOT_FILE;PLOT_CODE;PLOT_DATA;FILE
INV_DATE;BIODIVERSITY_PLOT_FILE;INV_DATE;PLOT_DATA;FILE
CYCLE;BIODIVERSITY_PLOT_FILE;CYCLE;PLOT_DATA;FILE
REF_YEAR_BEGIN;BIODIVERSITY_PLOT_FILE;REF_YEAR_BEGIN;PLOT_DATA;FILE
REF_YEAR_END;BIODIVERSITY_PLOT_FILE;REF_YEAR_END;PLOT_DATA;FILE
GPS_ELEVATION;BIODIVERSITY_PLOT_FILE;GPS_ELEVATION;PLOT_DATA;FILE
ORIENTATION_CODE;BIODIVERSITY_PLOT_FILE;ORIENTATION_CODE;PLOT_DATA;FILE
SLOPE;BIODIVERSITY_PLOT_FILE;SLOPE;PLOT_DATA;FILE
PREVIOUS_LAND_USE_CODE;BIODIVERSITY_PLOT_FILE;PREVIOUS_LAND_USE_CODE;PLOT_DATA;FILE
ORIGIN_CODE;BIODIVERSITY_PLOT_FILE;ORIGIN_CODE;PLOT_DATA;FILE
FOREST_MANAGEMENT_CODE;BIODIVERSITY_PLOT_FILE;FOREST_MANAGEMENT_CODE;PLOT_DATA;FILE
FOREST_TYPE_CODE;BIODIVERSITY_PLOT_FILE;FOREST_TYPE_CODE;PLOT_DATA;FILE
TREEMIX_CODE;BIODIVERSITY_PLOT_FILE;TREEMIX_CODE;PLOT_DATA;FILE
MEAN_AGE_CODE;BIODIVERSITY_PLOT_FILE;MEAN_AGE_CODE;PLOT_DATA;FILE
FENCING_CODE;BIODIVERSITY_PLOT_FILE;FENCING_CODE;PLOT_DATA;FILE
EFTC_CODE;BIODIVERSITY_PLOT_FILE;EFTC_CODE;PLOT_DATA;FILE
DW_REMOVAL_CODE;BIODIVERSITY_PLOT_FILE;DW_REMOVAL_CODE;PLOT_DATA;FILE
CANOPY_CLOSURE_CODE;BIODIVERSITY_PLOT_FILE;CANOPY_CLOSURE_CODE;PLOT_DATA;FILE
TREE_LAYERS_NUMBER_CODE;BIODIVERSITY_PLOT_FILE;TREE_LAYERS_NUMBER_CODE;PLOT_DATA;FILE
SAMPLE_PERCENTAGE;BIODIVERSITY_PLOT_FILE;SAMPLE_PERCENTAGE;PLOT_DATA;FILE
COMMENT;BIODIVERSITY_PLOT_FILE;COMMENT;PLOT_DATA;FILE
PLOT_CODE;BIODIVERSITY_TREE_FILE;PLOT_CODE;TREE_DATA;FILE
CYCLE;BIODIVERSITY_TREE_FILE;CYCLE;TREE_DATA;FILE
TREE_CODE;BIODIVERSITY_TREE_FILE;TREE_CODE;TREE_DATA;FILE
DBH;BIODIVERSITY_TREE_FILE;DBH;TREE_DATA;FILE
TREE_STATUS_CODE;BIODIVERSITY_TREE_FILE;TREE_STATUS_CODE;TREE_DATA;FILE
DISTANCE;BIODIVERSITY_TREE_FILE;DISTANCE;TREE_DATA;FILE
AZIMUTH;BIODIVERSITY_TREE_FILE;AZIMUTH;TREE_DATA;FILE
SPECIES_CODE;BIODIVERSITY_TREE_FILE;SPECIES_CODE;TREE_DATA;FILE
DECAY_CODE;BIODIVERSITY_TREE_FILE;DECAY_CODE;TREE_DATA;FILE
TREE_HEIGHT;BIODIVERSITY_TREE_FILE;TREE_HEIGHT;TREE_DATA;FILE
CANOPY_HEIGHT;BIODIVERSITY_TREE_FILE;CANOPY_HEIGHT;TREE_DATA;FILE
COMMENT;BIODIVERSITY_TREE_FILE;COMMENT;TREE_DATA;FILE
PLOT_CODE;BIODIVERSITY_GROUND_VEGETATION_FILE;PLOT_CODE;GROUND_VEGETATION_DATA;FILE
CYCLE;BIODIVERSITY_GROUND_VEGETATION_FILE;CYCLE;GROUND_VEGETATION_DATA;FILE
VEGETATION_SPECIES_ID;BIODIVERSITY_GROUND_VEGETATION_FILE;VEGETATION_SPECIES_ID;GROUND_VEGETATION_DATA;FILE
VEGETATION_SPECIES_CODE;BIODIVERSITY_GROUND_VEGETATION_FILE;VEGETATION_SPECIES_CODE;GROUND_VEGETATION_DATA;FILE
SURVEY_DATE;BIODIVERSITY_GROUND_VEGETATION_FILE;SURVEY_DATE;GROUND_VEGETATION_DATA;FILE
SURFACE_LAYER_CODE;BIODIVERSITY_GROUND_VEGETATION_FILE;SURFACE_LAYER_CODE;GROUND_VEGETATION_DATA;FILE
COVER;BIODIVERSITY_GROUND_VEGETATION_FILE;COVER;GROUND_VEGETATION_DATA;FILE
COMMENT;BIODIVERSITY_GROUND_VEGETATION_FILE;COMMENT;GROUND_VEGETATION_DATA;FILE
SUBMISSION_ID;GROUND_VEGETATION_FORM;SUBMISSION_ID;GROUND_VEGETATION_DATA;FORM
COUNTRY_CODE;GROUND_VEGETATION_FORM;COUNTRY_CODE;GROUND_VEGETATION_DATA;FORM
CYCLE;GROUND_VEGETATION_FORM;CYCLE;GROUND_VEGETATION_DATA;FORM
PLOT_CODE;GROUND_VEGETATION_FORM;PLOT_CODE;GROUND_VEGETATION_DATA;FORM
VEGETATION_SPECIES_ID;GROUND_VEGETATION_FORM;VEGETATION_SPECIES_ID;GROUND_VEGETATION_DATA;FORM
VEGETATION_SPECIES_CODE;GROUND_VEGETATION_FORM;VEGETATION_SPECIES_CODE;GROUND_VEGETATION_DATA;FORM
SURVEY_DATE;GROUND_VEGETATION_FORM;SURVEY_DATE;GROUND_VEGETATION_DATA;FORM
SURFACE_LAYER_CODE;GROUND_VEGETATION_FORM;SURFACE_LAYER_CODE;GROUND_VEGETATION_DATA;FORM
COVER;GROUND_VEGETATION_FORM;COVER;GROUND_VEGETATION_DATA;FORM
COMMENT;GROUND_VEGETATION_FORM;COMMENT;GROUND_VEGETATION_DATA;FORM
PLOT_CODE;BIODIVERSITY_DEADWOOD_FILE;PLOT_CODE;DEADWOOD_DATA;FILE
CYCLE;BIODIVERSITY_DEADWOOD_FILE;CYCLE;DEADWOOD_DATA;FILE
DEADWOOD_ID;BIODIVERSITY_DEADWOOD_FILE;DEADWOOD_ID;DEADWOOD_DATA;FILE
DW_TYPE_CODE;BIODIVERSITY_DEADWOOD_FILE;DW_TYPE_CODE;DEADWOOD_DATA;FILE
DW_SPECIES_CODE;BIODIVERSITY_DEADWOOD_FILE;DW_SPECIES_CODE;DEADWOOD_DATA;FILE
DW_MEDIAN_DIAMETER;BIODIVERSITY_DEADWOOD_FILE;DW_MEDIAN_DIAMETER;DEADWOOD_DATA;FILE
DW_LENGTH;BIODIVERSITY_DEADWOOD_FILE;DW_LENGTH;DEADWOOD_DATA;FILE
DECAY_CLASS_CODE;BIODIVERSITY_DEADWOOD_FILE;DECAY_CLASS_CODE;DEADWOOD_DATA;FILE
COMMENT;BIODIVERSITY_DEADWOOD_FILE;COMMENT;DEADWOOD_DATA;FILE
SUBMISSION_ID;DEADWOOD_FORM;SUBMISSION_ID;DEADWOOD_DATA;FORM
COUNTRY_CODE;DEADWOOD_FORM;COUNTRY_CODE;DEADWOOD_DATA;FORM
PLOT_CODE;DEADWOOD_FORM;PLOT_CODE;DEADWOOD_DATA;FORM
CYCLE;DEADWOOD_FORM;CYCLE;DEADWOOD_DATA;FORM
DEADWOOD_ID;DEADWOOD_FORM;DEADWOOD_ID;DEADWOOD_DATA;FORM
DW_TYPE_CODE;DEADWOOD_FORM;DW_TYPE_CODE;DEADWOOD_DATA;FORM
DW_SPECIES_CODE;DEADWOOD_FORM;DW_SPECIES_CODE;DEADWOOD_DATA;FORM
DW_MEDIAN_DIAMETER;DEADWOOD_FORM;DW_MEDIAN_DIAMETER;DEADWOOD_DATA;FORM
DW_LENGTH;DEADWOOD_FORM;DW_LENGTH;DEADWOOD_DATA;FORM
DECAY_CLASS_CODE;DEADWOOD_FORM;DECAY_CLASS_CODE;DEADWOOD_DATA;FORM
COMMENT;DEADWOOD_FORM;COMMENT;DEADWOOD_DATA;FORM
GPS_ELEVATION;PLOT_DATA;GPS_ELEVATION;HARMONIZED_PLOT_DATA;HARMONIZE
ORIENTATION_CODE;PLOT_DATA;ORIENTATION_CODE;HARMONIZED_PLOT_DATA;HARMONIZE
SLOPE;PLOT_DATA;SLOPE;HARMONIZED_PLOT_DATA;HARMONIZE
PREVIOUS_LAND_USE_CODE;PLOT_DATA;PREVIOUS_LAND_USE_CODE;HARMONIZED_PLOT_DATA;HARMONIZE
ORIGIN_CODE;PLOT_DATA;ORIGIN_CODE;HARMONIZED_PLOT_DATA;HARMONIZE
FOREST_MANAGEMENT_CODE;PLOT_DATA;FOREST_MANAGEMENT_CODE;HARMONIZED_PLOT_DATA;HARMONIZE
FOREST_TYPE_CODE;PLOT_DATA;FOREST_TYPE_CODE;HARMONIZED_PLOT_DATA;HARMONIZE
TREEMIX_CODE;PLOT_DATA;TREEMIX_CODE;HARMONIZED_PLOT_DATA;HARMONIZE
MEAN_AGE_CODE;PLOT_DATA;MEAN_AGE_CODE;HARMONIZED_PLOT_DATA;HARMONIZE
FENCING_CODE;PLOT_DATA;FENCING_CODE;HARMONIZED_PLOT_DATA;HARMONIZE
EFTC_CODE;PLOT_DATA;EFTC_CODE;HARMONIZED_PLOT_DATA;HARMONIZE
DW_REMOVAL_CODE;PLOT_DATA;DW_REMOVAL_CODE;HARMONIZED_PLOT_DATA;HARMONIZE
CANOPY_CLOSURE_CODE;PLOT_DATA;CANOPY_CLOSURE_CODE;HARMONIZED_PLOT_DATA;HARMONIZE
TREE_LAYERS_NUMBER_CODE;PLOT_DATA;TREE_LAYERS_NUMBER_CODE;HARMONIZED_PLOT_DATA;HARMONIZE
SAMPLE_PERCENTAGE;PLOT_DATA;SAMPLE_PERCENTAGE;HARMONIZED_PLOT_DATA;HARMONIZE
DBH;TREE_DATA;DBH;HARMONIZED_TREE_DATA;HARMONIZE
TREE_STATUS_CODE;TREE_DATA;TREE_STATUS_CODE;HARMONIZED_TREE_DATA;HARMONIZE
DISTANCE;TREE_DATA;DISTANCE;HARMONIZED_TREE_DATA;HARMONIZE
AZIMUTH;TREE_DATA;AZIMUTH;HARMONIZED_TREE_DATA;HARMONIZE
SPECIES_CODE;TREE_DATA;SPECIES_CODE;HARMONIZED_TREE_DATA;HARMONIZE
DECAY_CODE;TREE_DATA;DECAY_CODE;HARMONIZED_TREE_DATA;HARMONIZE
TREE_HEIGHT;TREE_DATA;TREE_HEIGHT;HARMONIZED_TREE_DATA;HARMONIZE
CANOPY_HEIGHT;TREE_DATA;CANOPY_HEIGHT;HARMONIZED_TREE_DATA;HARMONIZE
COUNTRY_CODE;GROUND_VEGETATION_DATA;COUNTRY_CODE;HARMONIZED_GROUND_VEGETATION_DATA;HARMONIZE
PLOT_CODE;GROUND_VEGETATION_DATA;PLOT_CODE;HARMONIZED_GROUND_VEGETATION_DATA;HARMONIZE
CYCLE;GROUND_VEGETATION_DATA;CYCLE;HARMONIZED_GROUND_VEGETATION_DATA;HARMONIZE
VEGETATION_SPECIES_ID;GROUND_VEGETATION_DATA;VEGETATION_SPECIES_ID;HARMONIZED_GROUND_VEGETATION_DATA;HARMONIZE
VEGETATION_SPECIES_CODE;GROUND_VEGETATION_DATA;VEGETATION_SPECIES_CODE;HARMONIZED_GROUND_VEGETATION_DATA;HARMONIZE
SURVEY_DATE;GROUND_VEGETATION_DATA;SURVEY_DATE;HARMONIZED_GROUND_VEGETATION_DATA;HARMONIZE
SURFACE_LAYER_CODE;GROUND_VEGETATION_DATA;SURFACE_LAYER_CODE;HARMONIZED_GROUND_VEGETATION_DATA;HARMONIZE
COVER;GROUND_VEGETATION_DATA;COVER;HARMONIZED_GROUND_VEGETATION_DATA;HARMONIZE
COMMENT;GROUND_VEGETATION_DATA;COMMENT;HARMONIZED_GROUND_VEGETATION_DATA;HARMONIZE
COUNTRY_CODE;DEADWOOD_DATA;COUNTRY_CODE;HARMONIZED_DEADWOOD_DATA;HARMONIZE
PLOT_CODE;DEADWOOD_DATA;PLOT_CODE;HARMONIZED_DEADWOOD_DATA;HARMONIZE
CYCLE;DEADWOOD_DATA;CYCLE;HARMONIZED_DEADWOOD_DATA;HARMONIZE
DEADWOOD_ID;DEADWOOD_DATA;DEADWOOD_ID;HARMONIZED_DEADWOOD_DATA;HARMONIZE
DW_TYPE_CODE;DEADWOOD_DATA;DW_TYPE_CODE;HARMONIZED_DEADWOOD_DATA;HARMONIZE
DW_SPECIES_CODE;DEADWOOD_DATA;DW_SPECIES_CODE;HARMONIZED_DEADWOOD_DATA;HARMONIZE
DW_MEDIAN_DIAMETER;DEADWOOD_DATA;DW_MEDIAN_DIAMETER;HARMONIZED_DEADWOOD_DATA;HARMONIZE
DW_LENGTH;DEADWOOD_DATA;DW_LENGTH;HARMONIZED_DEADWOOD_DATA;HARMONIZE
DECAY_CLASS_CODE;DEADWOOD_DATA;DECAY_CLASS_CODE;HARMONIZED_DEADWOOD_DATA;HARMONIZE
COMMENT;DEADWOOD_DATA;COMMENT;HARMONIZED_DEADWOOD_DATA;HARMONIZE
